{
  "page": 1,
  "total_results": 7913,
  "total_pages": 396,
  "results": [
    {
      "popularity": 8.288,
      "vote_count": 903,
      "video": false,
      "poster_path": "/pci1ArYW7oJ2eyTo2NMYEKHHiCP.jpg",
      "id": 724089,
      "adult": false,
      "backdrop_path": "/jtAI6OJIWLWiRItNSZoWjrsUtmi.jpg",
      "original_language": "en",
      "original_title": "Gabriel's Inferno Part II",
      "genre_ids": [10749],
      "title": "Gabriel's Inferno Part II",
      "vote_average": 8.9,
      "overview": "Professor Gabriel Emerson finally learns the truth about Julia Mitchell's identity, but his realization comes a moment too late. Julia is done waiting for the well-respected Dante specialist to remember her and wants nothing more to do with him. Can Gabriel win back her heart before she finds love in another's arms?",
      "release_date": "2020-07-31"
    },
    {
      "popularity": 8.944,
      "vote_count": 1507,
      "video": false,
      "poster_path": "/oyG9TL7FcRP4EZ9Vid6uKzwdndz.jpg",
      "id": 696374,
      "adult": false,
      "backdrop_path": "/969BfPHGJcjg2aUv60g5uiiXFzf.jpg",
      "original_language": "en",
      "original_title": "Gabriel's Inferno",
      "genre_ids": [10749],
      "title": "Gabriel's Inferno",
      "vote_average": 8.8,
      "overview": "An intriguing and sinful exploration of seduction, forbidden love, and redemption, Gabriel's Inferno is a captivating and wildly passionate tale of one man's escape from his own personal hell as he tries to earn the impossible--forgiveness and love.",
      "release_date": "2020-05-29"
    },
    {
      "popularity": 20.614,
      "vote_count": 251,
      "video": false,
      "poster_path": "/riAooJrFvVhotyaOgoI0WR7okSe.jpg",
      "id": 644479,
      "adult": false,
      "backdrop_path": "/8g1rUabKleLvovt0Sx6bXgWfC42.jpg",
      "original_language": "es",
      "original_title": "Dedicada a mi ex",
      "genre_ids": [35, 18],
      "title": "Dedicated to my ex",
      "vote_average": 8.7,
      "overview": "The film tells the story of Ariel, a 21-year-old who decides to form a rock band to compete for a prize of ten thousand dollars in a musical band contest, this as a last option when trying to get money to save their relationship and reunite with his ex-girlfriend, which breaks due to the trip she must make to Finland for an internship. Ariel with her friend Ortega, decides to make a casting to find the other members of the band, although they do not know nothing about music, thus forming a band with members that have diverse and opposite personalities.",
      "release_date": "2019-11-01"
    },
    {
      "popularity": 42.166,
      "vote_count": 17389,
      "video": false,
      "poster_path": "/5KCVkau1HEl7ZzfPsKAPM0sMiKc.jpg",
      "id": 278,
      "adult": false,
      "backdrop_path": "/iNh3BivHyg5sQRPP1KOkzguEX0H.jpg",
      "original_language": "en",
      "original_title": "The Shawshank Redemption",
      "genre_ids": [80, 18],
      "title": "The Shawshank Redemption",
      "vote_average": 8.7,
      "overview": "Framed in the 1940s for the double murder of his wife and her lover, upstanding banker Andy Dufresne begins a new life at the Shawshank prison, where he puts his accounting skills to work for an amoral warden. During his long stretch in prison, Dufresne comes to be admired by the other inmates -- including an older prisoner named Red -- for his integrity and unquenchable sense of hope.",
      "release_date": "1994-09-23"
    },
    {
      "popularity": 16.181,
      "vote_count": 2413,
      "video": false,
      "poster_path": "/2CAL2433ZeIihfX1Hb2139CX0pW.jpg",
      "id": 19404,
      "adult": false,
      "backdrop_path": "/svYzz6A6xleZv5toTLAhigXd1DX.jpg",
      "original_language": "hi",
      "original_title": "दिलवाले दुल्हनिया ले जायेंगे",
      "genre_ids": [35, 18, 10749],
      "title": "Dilwale Dulhania Le Jayenge",
      "vote_average": 8.7,
      "overview": "Raj is a rich, carefree, happy-go-lucky second generation NRI. Simran is the daughter of Chaudhary Baldev Singh, who in spite of being an NRI is very strict about adherence to Indian values. Simran has left for India to be married to her childhood fiancé. Raj leaves for India with a mission at his hands, to claim his lady love under the noses of her whole family. Thus begins a saga.",
      "release_date": "1995-10-20"
    }
  ]
}
